[
  {
    "City": "Blandahaven",
    "Zipcode": "27363",
    "Street": "9780 Jan Cliff",
    "StreetNumber": 457,
    "Id": 0
  },
  {
    "City": "Boganview",
    "Zipcode": "59166-7958",
    "Street": "2153 Botsford Mountain",
    "StreetNumber": 585,
    "Id": 1
  },
  {
    "City": "West Jaysonton",
    "Zipcode": "08159",
    "Street": "491 Murray Mill",
    "StreetNumber": 224,
    "Id": 2
  },
  {
    "City": "Port Phoebechester",
    "Zipcode": "91059-7216",
    "Street": "6615 Adelia View",
    "StreetNumber": 110,
    "Id": 3
  },
  {
    "City": "Gerholdhaven",
    "Zipcode": "92146-1194",
    "Street": "810 Cremin Harbors",
    "StreetNumber": 669,
    "Id": 4
  },
  {
    "City": "Turnerton",
    "Zipcode": "25752",
    "Street": "67578 Huel Ferry",
    "StreetNumber": 130,
    "Id": 5
  },
  {
    "City": "O'Connellport",
    "Zipcode": "79337-5183",
    "Street": "88852 Collier Forge",
    "StreetNumber": 843,
    "Id": 6
  },
  {
    "City": "Icieburgh",
    "Zipcode": "81491",
    "Street": "4583 Kenneth Lock",
    "StreetNumber": 207,
    "Id": 7
  },
  {
    "City": "Rosaland",
    "Zipcode": "64209-3926",
    "Street": "33610 Rosanna Mount",
    "StreetNumber": 798,
    "Id": 8
  },
  {
    "City": "Hansenmouth",
    "Zipcode": "63659-7049",
    "Street": "307 Aliyah Mount",
    "StreetNumber": 149,
    "Id": 9
  },
  {
    "City": "Skyeville",
    "Zipcode": "81743",
    "Street": "79147 Baumbach Track",
    "StreetNumber": 894,
    "Id": 10
  },
  {
    "City": "Erickhaven",
    "Zipcode": "20050-2546",
    "Street": "94978 Raleigh Highway",
    "StreetNumber": 41,
    "Id": 11
  },
  {
    "City": "New Garrison",
    "Zipcode": "09241",
    "Street": "705 Wiegand Turnpike",
    "StreetNumber": 387,
    "Id": 12
  },
  {
    "City": "Brandtmouth",
    "Zipcode": "60754",
    "Street": "866 Murazik Light",
    "StreetNumber": 697,
    "Id": 13
  },
  {
    "City": "Pierreview",
    "Zipcode": "84931-5237",
    "Street": "097 Anne Corners",
    "StreetNumber": 666,
    "Id": 14
  },
  {
    "City": "New Mario",
    "Zipcode": "59672-6959",
    "Street": "06333 Wisozk Keys",
    "StreetNumber": 929,
    "Id": 15
  },
  {
    "City": "South Krystina",
    "Zipcode": "62692-3232",
    "Street": "990 Luettgen Mountains",
    "StreetNumber": 189,
    "Id": 16
  },
  {
    "City": "Kayville",
    "Zipcode": "75413-4452",
    "Street": "0997 Zion Coves",
    "StreetNumber": 184,
    "Id": 17
  },
  {
    "City": "Veumbury",
    "Zipcode": "45480-0917",
    "Street": "91419 Braun Harbor",
    "StreetNumber": 13,
    "Id": 18
  },
  {
    "City": "Port Brianaport",
    "Zipcode": "05265",
    "Street": "715 Princess Spurs",
    "StreetNumber": 663,
    "Id": 19
  },
  {
    "City": "South Marge",
    "Zipcode": "63562-3176",
    "Street": "4909 Pedro Key",
    "StreetNumber": 701,
    "Id": 20
  },
  {
    "City": "Riceport",
    "Zipcode": "77532-1186",
    "Street": "40105 Meaghan Estates",
    "StreetNumber": 426,
    "Id": 21
  },
  {
    "City": "Goldnerstad",
    "Zipcode": "93321-5386",
    "Street": "361 Zoey Stream",
    "StreetNumber": 546,
    "Id": 22
  },
  {
    "City": "Lake Imanichester",
    "Zipcode": "95850-4669",
    "Street": "310 Keagan Station",
    "StreetNumber": 261,
    "Id": 23
  },
  {
    "City": "Port Ada",
    "Zipcode": "52705",
    "Street": "094 Corrine Oval",
    "StreetNumber": 527,
    "Id": 24
  },
  {
    "City": "West Jillian",
    "Zipcode": "28571-4963",
    "Street": "956 Green Crescent",
    "StreetNumber": 487,
    "Id": 25
  },
  {
    "City": "Piercefort",
    "Zipcode": "01799",
    "Street": "821 Chandler Field",
    "StreetNumber": 314,
    "Id": 26
  },
  {
    "City": "Dickensfurt",
    "Zipcode": "05130-1627",
    "Street": "26111 Heather Park",
    "StreetNumber": 636,
    "Id": 27
  },
  {
    "City": "Charlenetown",
    "Zipcode": "99903-4667",
    "Street": "2934 Ryley Green",
    "StreetNumber": 434,
    "Id": 28
  },
  {
    "City": "Schowalterborough",
    "Zipcode": "94008-2053",
    "Street": "05430 Tony Port",
    "StreetNumber": 420,
    "Id": 29
  },
  {
    "City": "Lefflerland",
    "Zipcode": "88180-9983",
    "Street": "3299 Bednar Brook",
    "StreetNumber": 892,
    "Id": 30
  },
  {
    "City": "West Ignatius",
    "Zipcode": "26072",
    "Street": "539 Pacocha Fort",
    "StreetNumber": 61,
    "Id": 31
  },
  {
    "City": "West Cathrine",
    "Zipcode": "22710",
    "Street": "469 Margarita Curve",
    "StreetNumber": 643,
    "Id": 32
  },
  {
    "City": "Adellemouth",
    "Zipcode": "84546",
    "Street": "92246 Muller Expressway",
    "StreetNumber": 71,
    "Id": 33
  },
  {
    "City": "North Keith",
    "Zipcode": "70374-9982",
    "Street": "995 Hamill Springs",
    "StreetNumber": 917,
    "Id": 34
  },
  {
    "City": "Carminehaven",
    "Zipcode": "37636-5259",
    "Street": "4058 Turcotte Gardens",
    "StreetNumber": 381,
    "Id": 35
  },
  {
    "City": "North Davon",
    "Zipcode": "40837-5306",
    "Street": "3295 Bogan Greens",
    "StreetNumber": 626,
    "Id": 36
  },
  {
    "City": "West Jeromeberg",
    "Zipcode": "20925-5596",
    "Street": "92122 Susanna Vista",
    "StreetNumber": 999,
    "Id": 37
  },
  {
    "City": "North Aida",
    "Zipcode": "21121",
    "Street": "00802 Enrique Rue",
    "StreetNumber": 173,
    "Id": 38
  },
  {
    "City": "Stehrmouth",
    "Zipcode": "31974-5383",
    "Street": "9907 Dannie Corner",
    "StreetNumber": 428,
    "Id": 39
  },
  {
    "City": "North Gerson",
    "Zipcode": "72628",
    "Street": "808 Ashlynn Creek",
    "StreetNumber": 451,
    "Id": 40
  },
  {
    "City": "Harveyfort",
    "Zipcode": "80207-0335",
    "Street": "466 Kirstin Canyon",
    "StreetNumber": 179,
    "Id": 41
  },
  {
    "City": "Port Danikaside",
    "Zipcode": "59592",
    "Street": "9235 Gorczany Islands",
    "StreetNumber": 464,
    "Id": 42
  },
  {
    "City": "Steuberbury",
    "Zipcode": "71031",
    "Street": "84687 Gleichner Square",
    "StreetNumber": 290,
    "Id": 43
  },
  {
    "City": "West Luluberg",
    "Zipcode": "36379",
    "Street": "39905 Cartwright River",
    "StreetNumber": 82,
    "Id": 44
  },
  {
    "City": "Marianport",
    "Zipcode": "78872",
    "Street": "611 Roberta Tunnel",
    "StreetNumber": 429,
    "Id": 45
  },
  {
    "City": "Silasside",
    "Zipcode": "82542-2605",
    "Street": "5849 Walter Vista",
    "StreetNumber": 328,
    "Id": 46
  },
  {
    "City": "North Luisville",
    "Zipcode": "45327",
    "Street": "37101 Meghan Ferry",
    "StreetNumber": 927,
    "Id": 47
  },
  {
    "City": "Hammestown",
    "Zipcode": "47879",
    "Street": "673 Cormier Inlet",
    "StreetNumber": 678,
    "Id": 48
  },
  {
    "City": "Devinchester",
    "Zipcode": "33405",
    "Street": "3082 Alize Forge",
    "StreetNumber": 708,
    "Id": 49
  },
  {
    "City": "Okunevaborough",
    "Zipcode": "42187",
    "Street": "92382 Fredrick Junction",
    "StreetNumber": 564,
    "Id": 50
  },
  {
    "City": "Bayertown",
    "Zipcode": "87316",
    "Street": "91331 Langworth Stream",
    "StreetNumber": 96,
    "Id": 51
  },
  {
    "City": "Port Jeromyberg",
    "Zipcode": "90567",
    "Street": "642 Dejah Estate",
    "StreetNumber": 751,
    "Id": 52
  },
  {
    "City": "East Ramonland",
    "Zipcode": "04152",
    "Street": "2622 Aniyah Expressway",
    "StreetNumber": 228,
    "Id": 53
  },
  {
    "City": "Boganside",
    "Zipcode": "95691-7516",
    "Street": "7186 Hegmann Knolls",
    "StreetNumber": 498,
    "Id": 54
  },
  {
    "City": "Manuelaburgh",
    "Zipcode": "07228",
    "Street": "01454 Cyril Knolls",
    "StreetNumber": 723,
    "Id": 55
  },
  {
    "City": "Deckowstad",
    "Zipcode": "24620",
    "Street": "40461 Jast Prairie",
    "StreetNumber": 602,
    "Id": 56
  },
  {
    "City": "East Nick",
    "Zipcode": "95635",
    "Street": "616 Kaitlin Run",
    "StreetNumber": 26,
    "Id": 57
  },
  {
    "City": "Enricoshire",
    "Zipcode": "00035-7647",
    "Street": "3916 Lindsey Oval",
    "StreetNumber": 844,
    "Id": 58
  },
  {
    "City": "West Kaya",
    "Zipcode": "15166-7335",
    "Street": "242 Kris Coves",
    "StreetNumber": 318,
    "Id": 59
  },
  {
    "City": "Welchchester",
    "Zipcode": "77303-2629",
    "Street": "355 Kiana Fort",
    "StreetNumber": 436,
    "Id": 60
  },
  {
    "City": "East Arch",
    "Zipcode": "05189",
    "Street": "60781 Kuhlman Islands",
    "StreetNumber": 337,
    "Id": 61
  },
  {
    "City": "South Nathen",
    "Zipcode": "48133-9084",
    "Street": "555 Maurine Fields",
    "StreetNumber": 495,
    "Id": 62
  },
  {
    "City": "North Billy",
    "Zipcode": "96378",
    "Street": "96389 Johnnie Hills",
    "StreetNumber": 199,
    "Id": 63
  },
  {
    "City": "Fayville",
    "Zipcode": "51599-7062",
    "Street": "58134 Kuphal Ports",
    "StreetNumber": 470,
    "Id": 64
  },
  {
    "City": "New Herthamouth",
    "Zipcode": "39018",
    "Street": "609 Mosciski Underpass",
    "StreetNumber": 716,
    "Id": 65
  },
  {
    "City": "South Tessfurt",
    "Zipcode": "70904",
    "Street": "28258 Anderson Motorway",
    "StreetNumber": 415,
    "Id": 66
  },
  {
    "City": "North Maud",
    "Zipcode": "04671-2661",
    "Street": "033 Dach Well",
    "StreetNumber": 916,
    "Id": 67
  },
  {
    "City": "West Ernamouth",
    "Zipcode": "13440",
    "Street": "9263 Gayle Streets",
    "StreetNumber": 403,
    "Id": 68
  },
  {
    "City": "Port Luciousshire",
    "Zipcode": "71333",
    "Street": "20799 Kozey Tunnel",
    "StreetNumber": 368,
    "Id": 69
  },
  {
    "City": "Isabellaview",
    "Zipcode": "71933",
    "Street": "8512 Krajcik Courts",
    "StreetNumber": 405,
    "Id": 70
  },
  {
    "City": "North Eugenia",
    "Zipcode": "19781",
    "Street": "513 Vergie Grove",
    "StreetNumber": 605,
    "Id": 71
  },
  {
    "City": "Lyricburgh",
    "Zipcode": "73900",
    "Street": "23867 Bins Hill",
    "StreetNumber": 977,
    "Id": 72
  },
  {
    "City": "Kassulkeside",
    "Zipcode": "57471-8265",
    "Street": "119 Hoppe Crest",
    "StreetNumber": 923,
    "Id": 73
  },
  {
    "City": "Trantowtown",
    "Zipcode": "97201",
    "Street": "019 Lowell Keys",
    "StreetNumber": 887,
    "Id": 74
  },
  {
    "City": "Ziemannburgh",
    "Zipcode": "29899-8516",
    "Street": "397 Leffler Islands",
    "StreetNumber": 233,
    "Id": 75
  },
  {
    "City": "West Dashawn",
    "Zipcode": "97211-0410",
    "Street": "83377 Prosacco Dale",
    "StreetNumber": 140,
    "Id": 76
  },
  {
    "City": "New Jarrodtown",
    "Zipcode": "60192-8380",
    "Street": "744 Mathias Curve",
    "StreetNumber": 495,
    "Id": 77
  },
  {
    "City": "Port Bobbieview",
    "Zipcode": "98809-7027",
    "Street": "15670 Napoleon Tunnel",
    "StreetNumber": 536,
    "Id": 78
  },
  {
    "City": "Manuelahaven",
    "Zipcode": "23236-5074",
    "Street": "828 Gregory Pass",
    "StreetNumber": 305,
    "Id": 79
  },
  {
    "City": "East Haleighview",
    "Zipcode": "20110",
    "Street": "8184 Eichmann Lock",
    "StreetNumber": 632,
    "Id": 80
  },
  {
    "City": "McGlynnhaven",
    "Zipcode": "45535-4641",
    "Street": "8311 Jerad Skyway",
    "StreetNumber": 446,
    "Id": 81
  },
  {
    "City": "Port Ezequiel",
    "Zipcode": "71311-5373",
    "Street": "08307 Calista Square",
    "StreetNumber": 904,
    "Id": 82
  },
  {
    "City": "Filibertoville",
    "Zipcode": "10355",
    "Street": "947 Tristian Neck",
    "StreetNumber": 358,
    "Id": 83
  },
  {
    "City": "Meghanport",
    "Zipcode": "50032-6469",
    "Street": "4647 Donavon Wall",
    "StreetNumber": 836,
    "Id": 84
  },
  {
    "City": "Port Zelmachester",
    "Zipcode": "62857",
    "Street": "154 Aufderhar Light",
    "StreetNumber": 348,
    "Id": 85
  },
  {
    "City": "East Zulmouth",
    "Zipcode": "48840",
    "Street": "2696 Goodwin Courts",
    "StreetNumber": 981,
    "Id": 86
  },
  {
    "City": "West Ashleigh",
    "Zipcode": "48756",
    "Street": "126 Camylle Lodge",
    "StreetNumber": 630,
    "Id": 87
  },
  {
    "City": "Lake Crawford",
    "Zipcode": "27026-6844",
    "Street": "3864 Gladyce Wall",
    "StreetNumber": 660,
    "Id": 88
  },
  {
    "City": "Bergeville",
    "Zipcode": "79954-2637",
    "Street": "7197 Hayes Freeway",
    "StreetNumber": 835,
    "Id": 89
  },
  {
    "City": "Flatleyburgh",
    "Zipcode": "06587",
    "Street": "977 Balistreri Branch",
    "StreetNumber": 302,
    "Id": 90
  },
  {
    "City": "Gildaport",
    "Zipcode": "88855",
    "Street": "763 Kemmer Mount",
    "StreetNumber": 43,
    "Id": 91
  },
  {
    "City": "West Camylle",
    "Zipcode": "27552-6547",
    "Street": "8982 Welch Crest",
    "StreetNumber": 429,
    "Id": 92
  },
  {
    "City": "Kovacekland",
    "Zipcode": "78941-5415",
    "Street": "699 Corwin Plains",
    "StreetNumber": 111,
    "Id": 93
  },
  {
    "City": "Jorgeshire",
    "Zipcode": "29832-1436",
    "Street": "72269 Kuvalis Oval",
    "StreetNumber": 164,
    "Id": 94
  },
  {
    "City": "Kerlukeberg",
    "Zipcode": "36313",
    "Street": "8160 Gwendolyn Radial",
    "StreetNumber": 98,
    "Id": 95
  },
  {
    "City": "New Emiliano",
    "Zipcode": "16112",
    "Street": "967 Issac Gardens",
    "StreetNumber": 978,
    "Id": 96
  },
  {
    "City": "Timmothyberg",
    "Zipcode": "25306-1204",
    "Street": "8585 Bradtke Plains",
    "StreetNumber": 207,
    "Id": 97
  },
  {
    "City": "Biankabury",
    "Zipcode": "18917",
    "Street": "913 Jenkins Drives",
    "StreetNumber": 735,
    "Id": 98
  },
  {
    "City": "East Ociestad",
    "Zipcode": "24253",
    "Street": "9346 Emmanuel Row",
    "StreetNumber": 708,
    "Id": 99
  },
  {
    "City": "Orionville",
    "Zipcode": "95696",
    "Street": "030 Kenneth Rapids",
    "StreetNumber": 339,
    "Id": 100
  },
  {
    "City": "New Rusty",
    "Zipcode": "92537-2086",
    "Street": "199 Gabriel Lakes",
    "StreetNumber": 13,
    "Id": 101
  },
  {
    "City": "Funkchester",
    "Zipcode": "75034",
    "Street": "02148 Helga Wall",
    "StreetNumber": 550,
    "Id": 102
  },
  {
    "City": "South Arnaldo",
    "Zipcode": "20896",
    "Street": "21375 Jo Parks",
    "StreetNumber": 366,
    "Id": 103
  },
  {
    "City": "Port Alanna",
    "Zipcode": "94723-7145",
    "Street": "41488 Joe View",
    "StreetNumber": 799,
    "Id": 104
  },
  {
    "City": "North Berylmouth",
    "Zipcode": "40201",
    "Street": "14501 Schaefer Tunnel",
    "StreetNumber": 37,
    "Id": 105
  },
  {
    "City": "Kellistad",
    "Zipcode": "40791",
    "Street": "3756 Graham Hills",
    "StreetNumber": 637,
    "Id": 106
  },
  {
    "City": "Shanahanton",
    "Zipcode": "83607",
    "Street": "85713 Sasha Gateway",
    "StreetNumber": 985,
    "Id": 107
  },
  {
    "City": "North Alexatown",
    "Zipcode": "26596-2641",
    "Street": "957 Maud Field",
    "StreetNumber": 690,
    "Id": 108
  },
  {
    "City": "North Lailastad",
    "Zipcode": "07228",
    "Street": "26926 Rowena Ports",
    "StreetNumber": 513,
    "Id": 109
  },
  {
    "City": "North Chet",
    "Zipcode": "86086",
    "Street": "68132 Mason Crest",
    "StreetNumber": 516,
    "Id": 110
  },
  {
    "City": "South Ian",
    "Zipcode": "07305",
    "Street": "666 Predovic Plains",
    "StreetNumber": 911,
    "Id": 111
  },
  {
    "City": "Demariomouth",
    "Zipcode": "99386-1657",
    "Street": "61498 Myah Greens",
    "StreetNumber": 66,
    "Id": 112
  },
  {
    "City": "Port Emelieburgh",
    "Zipcode": "86610-9739",
    "Street": "30749 Rogahn Stream",
    "StreetNumber": 932,
    "Id": 113
  },
  {
    "City": "Jeniferhaven",
    "Zipcode": "99167",
    "Street": "777 Wolf Burgs",
    "StreetNumber": 502,
    "Id": 114
  },
  {
    "City": "Lemkebury",
    "Zipcode": "56746",
    "Street": "4168 Boyle Valley",
    "StreetNumber": 610,
    "Id": 115
  },
  {
    "City": "Thompsonville",
    "Zipcode": "04964-5169",
    "Street": "5548 Green Village",
    "StreetNumber": 415,
    "Id": 116
  },
  {
    "City": "Hannatown",
    "Zipcode": "63467",
    "Street": "36400 Claude Ville",
    "StreetNumber": 378,
    "Id": 117
  },
  {
    "City": "Franciscahaven",
    "Zipcode": "41775",
    "Street": "8297 Hettinger Ridges",
    "StreetNumber": 72,
    "Id": 118
  },
  {
    "City": "Fayeton",
    "Zipcode": "68728-7413",
    "Street": "744 Roob Pines",
    "StreetNumber": 107,
    "Id": 119
  },
  {
    "City": "Letitialand",
    "Zipcode": "72594-7392",
    "Street": "864 Zieme Common",
    "StreetNumber": 487,
    "Id": 120
  },
  {
    "City": "Minaberg",
    "Zipcode": "79321-2182",
    "Street": "703 Rice Lights",
    "StreetNumber": 143,
    "Id": 121
  },
  {
    "City": "Omerberg",
    "Zipcode": "74480-3328",
    "Street": "482 Stefanie River",
    "StreetNumber": 251,
    "Id": 122
  },
  {
    "City": "Kendallview",
    "Zipcode": "20931-1070",
    "Street": "586 Grover Knoll",
    "StreetNumber": 707,
    "Id": 123
  },
  {
    "City": "South Tiannamouth",
    "Zipcode": "45094",
    "Street": "18065 Edythe Track",
    "StreetNumber": 663,
    "Id": 124
  },
  {
    "City": "East Fernandofort",
    "Zipcode": "85662",
    "Street": "14600 Fermin Run",
    "StreetNumber": 411,
    "Id": 125
  },
  {
    "City": "Port Marcellefurt",
    "Zipcode": "83194-2483",
    "Street": "396 Arlo Valleys",
    "StreetNumber": 627,
    "Id": 126
  },
  {
    "City": "East Dejuanhaven",
    "Zipcode": "59807-1883",
    "Street": "525 Reynolds Mission",
    "StreetNumber": 356,
    "Id": 127
  },
  {
    "City": "Yeseniashire",
    "Zipcode": "94122",
    "Street": "6061 Hamill Rapid",
    "StreetNumber": 536,
    "Id": 128
  },
  {
    "City": "Norvalfurt",
    "Zipcode": "65348-2308",
    "Street": "87796 Bartell Brooks",
    "StreetNumber": 351,
    "Id": 129
  },
  {
    "City": "Bufordport",
    "Zipcode": "59726",
    "Street": "8095 Mills Greens",
    "StreetNumber": 311,
    "Id": 130
  },
  {
    "City": "West Ewaldhaven",
    "Zipcode": "76628-4500",
    "Street": "044 Fisher Route",
    "StreetNumber": 235,
    "Id": 131
  },
  {
    "City": "North Jacquelyn",
    "Zipcode": "40447",
    "Street": "65427 Jessika Walks",
    "StreetNumber": 209,
    "Id": 132
  },
  {
    "City": "Thelmaview",
    "Zipcode": "33035",
    "Street": "600 April Groves",
    "StreetNumber": 968,
    "Id": 133
  },
  {
    "City": "West Waldoport",
    "Zipcode": "85321",
    "Street": "535 Carrie Course",
    "StreetNumber": 388,
    "Id": 134
  },
  {
    "City": "East Rosario",
    "Zipcode": "73618-2898",
    "Street": "4276 Raul Expressway",
    "StreetNumber": 833,
    "Id": 135
  },
  {
    "City": "West Uriahfort",
    "Zipcode": "70471-0923",
    "Street": "187 Buckridge Lodge",
    "StreetNumber": 727,
    "Id": 136
  },
  {
    "City": "Francescofort",
    "Zipcode": "53386",
    "Street": "631 Celia Lane",
    "StreetNumber": 915,
    "Id": 137
  },
  {
    "City": "Reichelton",
    "Zipcode": "89368",
    "Street": "1145 Ernser Oval",
    "StreetNumber": 356,
    "Id": 138
  },
  {
    "City": "South Sylviaberg",
    "Zipcode": "07049-6267",
    "Street": "0741 Robel Avenue",
    "StreetNumber": 974,
    "Id": 139
  },
  {
    "City": "Joyceton",
    "Zipcode": "47355",
    "Street": "4148 Thompson Shore",
    "StreetNumber": 868,
    "Id": 140
  },
  {
    "City": "Israelmouth",
    "Zipcode": "26848-8197",
    "Street": "02794 Vincenzo Park",
    "StreetNumber": 298,
    "Id": 141
  },
  {
    "City": "Port Juniusport",
    "Zipcode": "76858-8612",
    "Street": "3614 Tremblay Bridge",
    "StreetNumber": 311,
    "Id": 142
  },
  {
    "City": "Port Braulio",
    "Zipcode": "65788",
    "Street": "978 Marquis Manors",
    "StreetNumber": 962,
    "Id": 143
  },
  {
    "City": "Simonehaven",
    "Zipcode": "56884-8206",
    "Street": "4806 Alberto Circle",
    "StreetNumber": 297,
    "Id": 144
  },
  {
    "City": "Lynchville",
    "Zipcode": "87332-2741",
    "Street": "468 Jaida Land",
    "StreetNumber": 165,
    "Id": 145
  },
  {
    "City": "Trentonside",
    "Zipcode": "30976",
    "Street": "568 Vaughn Hills",
    "StreetNumber": 743,
    "Id": 146
  },
  {
    "City": "Lake Hortenseside",
    "Zipcode": "94814",
    "Street": "5167 Kuphal Rapid",
    "StreetNumber": 620,
    "Id": 147
  },
  {
    "City": "East Albertside",
    "Zipcode": "94322-0280",
    "Street": "927 Lang Keys",
    "StreetNumber": 516,
    "Id": 148
  },
  {
    "City": "Ziemeview",
    "Zipcode": "18898-3258",
    "Street": "7506 Grady Road",
    "StreetNumber": 513,
    "Id": 149
  }
]